{
    "name": "toyo",
    "format": "simple",
    "type": "tileset",
    "sens_base_h": 0,
    "sens_base_v": 0,
    "img_width": 128,
    "img_height": 128,
    "nb_img_v": 2,
    "nb_img_h": 4,
    "scale_x": 1,
    "scale_y": 1,
    "color_key": -1,
    "vertical_flip": [],
    "horizontal_flip": [],
    "animations": [
        ["nleft_nright_up_ndown_nup_left_nup_right_ndown_left_ndown_right", 1],
        ["nleft_nright_up_down_nup_left_nup_right_ndown_left_ndown_right", 1],
        ["left_right_nup_ndown_nup_left_nup_right_ndown_left_ndown_right", 1],
        ["nleft_right_nup_down_nup_left_nup_right_ndown_left_ndown_right", 1],
        ["left_nright_nup_down_nup_left_nup_right_ndown_left_ndown_right", 1],
        ["left_nright_up_ndown_nup_left_nup_right_ndown_left_ndown_right", 1],
        ["nleft_right_up_ndown_nup_left_nup_right_ndown_left_ndown_right", 1]
    ]
}